…
  id = col_character(),
  age = col_double(),
  sex = col_character(),
  region = col_character(),
  income = col_double(),
  married = col_character(),
  children = col_double(),
  car = col_character(),
  save_act = col_character(),
  current_act = col_character(),
  mortgage = col_character(),
  pep = col_character()
)
> bankdata
# A tibble: 600 x 12
   id        age sex    region     income married children car   save_act current_act mortgage pep  
   <chr>   <dbl> <chr>  <chr>       <dbl> <chr>      <dbl> <chr> <chr>    <chr>       <chr>    <chr>
 1 ID12101    48 FEMALE INNER_CITY 17546  NO             1 NO    NO       NO          NO       YES  
 2 ID12102    40 MALE   TOWN       30085. YES            3 YES   NO       YES         YES      NO   
 3 ID12103    51 FEMALE INNER_CITY 16575. YES            0 YES   YES      YES         NO       NO   
 4 ID12104    23 FEMALE TOWN       20375. YES            3 NO    NO       YES         NO       NO   
 5 ID12105    57 FEMALE RURAL      50576. YES            0 NO    YES      NO          NO       NO   
 6 ID12106    57 FEMALE TOWN       37870. YES            2 NO    YES      YES         NO       YES  
 7 ID12107    22 MALE   RURAL       8877. NO             0 NO    NO       YES         NO       YES  
 8 ID12108    58 MALE   TOWN       24947. YES            0 YES   YES      YES         NO       NO   
 9 ID12109    37 FEMALE SUBURBAN   25304. YES            2 YES   NO       NO          NO       NO   
10 ID12110    54 MALE   TOWN       24212. YES            2 YES   YES      YES         NO       NO   
# ... with 590 more rows
…
